{
  "type": "service_account",
  "project_id": "fir-products-7ae3c",
  "private_key_id": "881e87f69c3439d9101f8ad6840ce04515942437",
  "private_key": "-----BEGIN PRIVATE KEY-----\nMIIEvgIBADANBgkqhkiG9w0BAQEFAASCBKgwggSkAgEAAoIBAQC0DjdgR7I1IxzD\n3cMzWpbOSEvcGhgiaCgkVeKzDnrYHf9yejWenrkR+gB67Ycl/L8DPV9gMaeKwHFt\nsM3sciGEbCFU8RKmOR0v+Ve/dANcOmBqEqw8f+RC3Si7GJKULKN4y8nVOFbgVoQx\nh0ArkZsvjaaJwBUDVZgvJzY2PvTrY/dq3or8p9CrsFK37e2sG0nEHsEAM/krM9fi\nNEh1g8WpN2BivWc7LYMUM++Qzxorzw3Wd5HjpwpmMCFdjQP/3bOT/VuZwBAq6twS\nbVK7nZd3PRfKQeOKfFgOuXZN1d5/IkhEhFh5ZQvLqxEYO/FdZg3qnSL162QkOPvr\nIZPQhk+xAgMBAAECggEAI0kO7poWUSYEptjAfoGgAKR341YkySdeyIIhR2RMzCoS\ny7Ep7WAfFigHbI+8dsQRfdXK6VvJwN4GTJADxvS131Dedlo5BKS4NNTZLp6SYwJY\nryjiIogQqE7VgtblsM6PqaZMMzITimrCBL/D4lXqUtcgXinrpEfjp0f4rohHcJKG\nA4eZ1f8TlNaW/7Xj124VZltmsiuj1l34BC/dw9ZjtDlhoAPdkYboF61wJyY+6DyW\nNrDnR+jeifpD0QpfgM0X4bEi0hljO0FO8TeJ31SouRLW6aeJJPVi6Cl6Cwltopln\nsY8q8BEHlCl7/b8dlrqxcqRbH47GGM9n0nWugh3pbQKBgQDnE8OyT1+R9hNlQS4d\nPtH8MP1uh9BfvjFudJ/7uEo9/1w3LLM0omTjPsJ7wshYR3/NE0rgJ8Y2MKS4z30/\n1EcCZvoDurcLfpx4ed0ZUj0agqCmEQZrOft/ed9QAyQJob2bj12sQhMENKJe1syL\nc9RibI9C9DKOoe6Eg4JdH0vitQKBgQDHebNfqzdH3X1lu0KPtEXiC1P4TvjnmLcy\nw77Y0l7ErhhWWH0WeBCS5+ASbVSEvSMWlFIQRfBRUIMqVstmwyytOTYkL6icxXNQ\nuWXXN04y5q1MLPE+q1sPttWrrQIOltdBseZa5/lkKIqCdmThxZ/1RDQe2JulAZNk\nck+MaB3qjQKBgFv68w/8JlescwYADwIXKnDPc2HW7+vcgkKsa65AKlVJW4Se52qR\nJcWLCtFGtIbnVwjjoA9f5bdWX4stFHce4XEkWmq3nPsXV+Ng5tCYergdvSK9bieq\neeDBO1HXHjYzSo0sYSYbWwR2ixdjOyJbZfQTsGb/W0yJSq82xeKZfZRtAoGBAL5W\nk2FbV9F8OHaFO9sx0mkCFCrg+ELNhymqfIYaHpGf6dsibqGtCWuUVExhBH/wlfWq\nq6+ZfNmqcK5KyaWR4SSdbdsTmtmU0xcZAWNeA4EwefYxADWjfq288Z/x4v+W0Wl/\nXmYp6d+3i4s3e8WvNJXtcappWAMYQNNc/CjnBHzVAoGBAJ18WCL142WKmcQkqv3q\n3Tth6ZgcnIPBbLYxagKC+72vhxcA0xWKMRRPzEJB1Zq6zGzL22zPcxyNsUCYjfLn\nm+oEmUPQwpkHUQnt3CTVUknmg7f6kJr+KgqDg4UgMd6symXUc9y+7l+Ajn9VJCb3\nCrWCKy6UjZ5zpTtAGtLr4KD0\n-----END PRIVATE KEY-----\n",
  "client_email": "firebase-adminsdk-t8fgq@fir-products-7ae3c.iam.gserviceaccount.com",
  "client_id": "113660068333599937377",
  "auth_uri": "https://accounts.google.com/o/oauth2/auth",
  "token_uri": "https://oauth2.googleapis.com/token",
  "auth_provider_x509_cert_url": "https://www.googleapis.com/oauth2/v1/certs",
  "client_x509_cert_url": "https://www.googleapis.com/robot/v1/metadata/x509/firebase-adminsdk-t8fgq%40fir-products-7ae3c.iam.gserviceaccount.com"
}
